[
    {
        "name" : "Php Xtreme programming bootcamp",
        "description" : "Php for beginers",
        "website" : "laravel.org/bootcamps",
        "phone" : "(111)1212121",
        "user_id" : 1,
        "average_rating" : 4.5,
        "average_cost" : 2000

    },

    {
        "name" : "Pyton Xtreme programming bootcamp",
        "description" : "Pyton for beginers",
        "website" : "python.org/bootcamps",
        "phone" : "(222)232321",
        "user_id" : 1,
        "average_rating" : 4.7,
        "average_cost" : 8000

    },

    {
        "name" : "Ruby Xtreme programming bootcamp",
        "description" : "Ruby for beginers",
        "website" : "ruby.org/bootcamps",
        "phone" : "(333)334343",
        "user_id" : 1,
        "average_rating" : 4.5,
        "average_cost" : 4000

    }

    
]
